{
  "id": "@andrea.dragotta/nodebb-plugin-welcome-header",
  "url": "https://gitlab.com/search-on-npm/nodebb-plugin-welcome-header",
  "library": "./library.js",
  "hooks": [
    {
      "hook": "static:app.load",
      "method": "init"
    },
    {
      "hook": "static:api.routes",
      "method": "addRoutes"
    },
    {
      "hook": "filter:admin.header.build",
      "method": "addAdminNavigation"
    },
    {
      "hook": "filter:widgets.getWidgets",
      "method": "defineWidgets"
    },
    {
      "hook": "filter:widget.render:welcomeheader",
      "method": "renderWelcomeHeaderWidget"
    }
  ],
  "staticDirs": {
    "static": "./static"
  },
  "less": ["static/style.less"],
  "modules": {
    "../admin/plugins/welcome-header.js": "static/lib/admin.js"
  },
  "templates": "static/templates"
}
